{"Message":"Team creating was triggered","Date":"2019-07-11T17:27:50.3244265+03:00"}
{"Message":"Team creating was triggered","Date":"2019-07-11T17:30:17.4985425+03:00"}
{"Message":"Loading all projects was triggered","Date":"2019-07-15T14:55:49.9122223+03:00"}
{"Message":"Loading all projects was triggered","Date":"2019-07-15T14:55:54.757868+03:00"}
{"Message":"Loading all projects was triggered","Date":"2019-07-15T14:55:54.7705542+03:00"}
{"Message":"Loading all projects was triggered","Date":"2019-07-15T14:56:06.6078809+03:00"}
{"Message":"Loading all projects was triggered","Date":"2019-07-15T14:56:14.1969335+03:00"}
{"Message":"Loading all projects was triggered","Date":"2019-07-15T14:56:24.1351287+03:00"}
{"Message":"Loading all projects was triggered","Date":"2019-07-15T14:56:29.3178287+03:00"}
{"Message":"Loading all projects was triggered","Date":"2019-07-15T14:56:37.5153003+03:00"}
{"Message":"Loading all projects was triggered","Date":"2019-07-15T14:56:42.9000054+03:00"}
{"Message":"Loading all projects was triggered","Date":"2019-07-15T14:56:48.0979761+03:00"}
{"Message":"Loading all tasks was triggered","Date":"2019-07-15T14:57:09.7911241+03:00"}
{"Message":"Loading all projects was triggered","Date":"2019-07-15T14:57:29.1024091+03:00"}
{"Message":"Loading all projects was triggered","Date":"2019-07-15T14:57:34.3056611+03:00"}
{"Message":"Loading all projects was triggered","Date":"2019-07-15T14:57:57.3702905+03:00"}
{"Message":"Loading all projects was triggered","Date":"2019-07-15T14:58:10.1078482+03:00"}
{"Message":"Loading all projects was triggered","Date":"2019-07-15T14:58:32.5902008+03:00"}
{"Message":"Loading all projects was triggered","Date":"2019-07-15T14:58:37.8051232+03:00"}
{"Message":"Loading all projects was triggered","Date":"2019-07-15T15:05:55.8932343+03:00"}
{"Message":"Loading all projects was triggered","Date":"2019-07-15T15:06:00.023837+03:00"}
{"Message":"Loading all projects was triggered","Date":"2019-07-15T15:06:05.26333+03:00"}
{"Message":"Loading all projects was triggered","Date":"2019-07-15T15:37:49.2073673+03:00"}
{"Message":"Loading all projects was triggered","Date":"2019-07-15T15:37:50.7192595+03:00"}
{"Message":"Loading all projects was triggered","Date":"2019-07-16T12:44:53.5752039+03:00"}
{"Message":"Loading all projects was triggered","Date":"2019-07-16T12:45:01.9931357+03:00"}
{"Message":"Loading all projects was triggered","Date":"2019-07-16T12:45:24.9514206+03:00"}
{"Message":"Loading all projects was triggered","Date":"2019-07-16T16:01:19.0306699+03:00"}
{"Message":"Get Count Of Task in project by user Id","Date":"2019-07-16T16:02:15.9770246+03:00"}
{"Message":"Loading all projects was triggered","Date":"2019-07-16T17:09:25.0689961+03:00"}
{"Message":"Loading all tasks was triggered","Date":"2019-07-16T17:16:42.915465+03:00"}
{"Message":"Loading all tasks was triggered","Date":"2019-07-16T17:16:42.9228552+03:00"}
{"Message":"Loading all tasks was triggered","Date":"2019-07-16T17:16:42.9297703+03:00"}
{"Message":"Loading all tasks was triggered","Date":"2019-07-16T17:16:42.9383464+03:00"}
{"Message":"Loading all tasks was triggered","Date":"2019-07-16T17:16:43.2524958+03:00"}
{"Message":"Loading all tasks was triggered","Date":"2019-07-16T17:16:43.3187385+03:00"}
{"Message":"Loading all tasks was triggered","Date":"2019-07-16T17:16:43.3698696+03:00"}
{"Message":"Loading all tasks was triggered","Date":"2019-07-16T17:16:43.7501805+03:00"}
{"Message":"Loading all tasks was triggered","Date":"2019-07-16T17:16:43.7539978+03:00"}
{"Message":"Loading all tasks was triggered","Date":"2019-07-16T17:16:43.7680787+03:00"}
{"Message":"Loading all tasks was triggered","Date":"2019-07-16T17:16:43.9500912+03:00"}
{"Message":"Loading all tasks was triggered","Date":"2019-07-16T17:16:44.0586206+03:00"}
{"Message":"Loading all tasks was triggered","Date":"2019-07-16T17:16:44.1983491+03:00"}
{"Message":"Loading all tasks was triggered","Date":"2019-07-16T17:16:45.1742331+03:00"}
{"Message":"Loading all tasks was triggered","Date":"2019-07-16T17:16:46.0450197+03:00"}
{"Message":"Loading all tasks was triggered","Date":"2019-07-16T17:17:31.269446+03:00"}
{"Message":"Loading all tasks was triggered","Date":"2019-07-16T17:17:32.2338163+03:00"}
{"Message":"Loading all tasks was triggered","Date":"2019-07-16T17:18:23.8956058+03:00"}
{"Message":"Loading all tasks was triggered","Date":"2019-07-16T17:18:24.7270822+03:00"}
{"Message":"Loading all tasks was triggered","Date":"2019-07-16T17:18:25.736084+03:00"}
{"Message":"Loading all tasks was triggered","Date":"2019-07-16T17:18:48.791788+03:00"}
{"Message":"Loading all tasks was triggered","Date":"2019-07-16T17:18:49.3774705+03:00"}
{"Message":"Loading all tasks was triggered","Date":"2019-07-16T17:18:49.877701+03:00"}
{"Message":"Loading all tasks was triggered","Date":"2019-07-16T17:19:04.5992897+03:00"}
{"Message":"Loading all tasks was triggered","Date":"2019-07-16T17:19:05.1690442+03:00"}
{"Message":"Loading all tasks was triggered","Date":"2019-07-16T17:19:05.299623+03:00"}
{"Message":"Loading all tasks was triggered","Date":"2019-07-16T17:19:05.4963679+03:00"}
{"Message":"Loading all tasks was triggered","Date":"2019-07-16T17:19:06.2606852+03:00"}
{"Message":"Loading all tasks was triggered","Date":"2019-07-16T17:19:24.2904221+03:00"}
{"Message":"Loading all tasks was triggered","Date":"2019-07-16T17:20:01.943393+03:00"}
{"Message":"Loading all tasks was triggered","Date":"2019-07-16T17:20:22.677448+03:00"}
{"Message":"Loading all tasks was triggered","Date":"2019-07-16T17:20:48.1667678+03:00"}
{"Message":"Loading all tasks was triggered","Date":"2019-07-16T17:23:14.6402301+03:00"}
{"Message":"Loading all tasks was triggered","Date":"2019-07-16T17:23:16.2415731+03:00"}
{"Message":"Loading all tasks was triggered","Date":"2019-07-16T17:24:16.0165637+03:00"}
{"Message":"Loading all tasks was triggered","Date":"2019-07-16T17:24:16.867876+03:00"}
{"Message":"Loading all tasks was triggered","Date":"2019-07-16T17:24:56.5072044+03:00"}
{"Message":"Loading all tasks was triggered","Date":"2019-07-16T17:24:56.5513315+03:00"}
{"Message":"Loading all tasks was triggered","Date":"2019-07-16T17:24:56.5556799+03:00"}
{"Message":"Loading all tasks was triggered","Date":"2019-07-16T17:25:07.7767209+03:00"}
{"Message":"Loading all tasks was triggered","Date":"2019-07-16T17:25:15.5188053+03:00"}
{"Message":"Loading all tasks was triggered","Date":"2019-07-16T17:25:25.6080466+03:00"}
{"Message":"Loading all tasks was triggered","Date":"2019-07-16T17:25:35.6838924+03:00"}
{"Message":"Loading all tasks was triggered","Date":"2019-07-16T17:25:45.7794423+03:00"}
{"Message":"Loading all tasks was triggered","Date":"2019-07-16T17:25:55.871728+03:00"}
{"Message":"Loading all tasks was triggered","Date":"2019-07-16T17:26:37.3641772+03:00"}
{"Message":"Loading all tasks was triggered","Date":"2019-07-16T17:26:47.4600937+03:00"}
{"Message":"Loading all projects was triggered","Date":"2019-07-16T17:26:53.4460168+03:00"}
{"Message":"Loading all tasks was triggered","Date":"2019-07-16T17:26:57.5553719+03:00"}
{"Message":"Loading all tasks was triggered","Date":"2019-07-16T17:28:55.2824647+03:00"}
{"Message":"Loading all tasks was triggered","Date":"2019-07-16T17:28:55.299026+03:00"}
{"Message":"Loading all tasks was triggered","Date":"2019-07-16T17:28:56.0728304+03:00"}
{"Message":"Loading all tasks was triggered","Date":"2019-07-16T17:28:57.0049845+03:00"}
{"Message":"Loading all tasks was triggered","Date":"2019-07-16T17:28:58.0254197+03:00"}
{"Message":"Loading all tasks was triggered","Date":"2019-07-16T17:28:59.0238761+03:00"}
{"Message":"Loading all tasks was triggered","Date":"2019-07-16T17:29:00.0763615+03:00"}
{"Message":"Loading all tasks was triggered","Date":"2019-07-16T17:29:00.9838677+03:00"}
{"Message":"Loading all tasks was triggered","Date":"2019-07-16T17:29:01.9852032+03:00"}
{"Message":"Loading all tasks was triggered","Date":"2019-07-16T17:29:03.0277548+03:00"}
{"Message":"Loading all tasks was triggered","Date":"2019-07-16T17:29:04.0183317+03:00"}
{"Message":"Loading all tasks was triggered","Date":"2019-07-16T17:29:05.0447597+03:00"}
{"Message":"Loading all projects was triggered","Date":"2019-07-16T17:29:05.0828126+03:00"}
{"Message":"Loading all tasks was triggered","Date":"2019-07-16T17:29:05.9935539+03:00"}
{"Message":"Loading all tasks was triggered","Date":"2019-07-16T17:29:06.9943566+03:00"}
{"Message":"Loading all tasks was triggered","Date":"2019-07-16T17:29:07.9932219+03:00"}
{"Message":"Loading all tasks was triggered","Date":"2019-07-16T17:29:08.9967762+03:00"}
{"Message":"Loading all tasks was triggered","Date":"2019-07-16T17:29:10.0092823+03:00"}
{"Message":"Loading all tasks was triggered","Date":"2019-07-16T17:29:11.0307779+03:00"}
{"Message":"Loading all tasks was triggered","Date":"2019-07-16T17:35:15.2436322+03:00"}
{"Message":"Loading all tasks was triggered","Date":"2019-07-16T17:35:15.3994203+03:00"}
{"Message":"Loading all tasks was triggered","Date":"2019-07-16T17:35:46.7659196+03:00"}
{"Message":"Loading all tasks was triggered","Date":"2019-07-16T17:35:56.7493071+03:00"}
{"Message":"Loading all tasks was triggered","Date":"2019-07-16T17:35:56.9527565+03:00"}
{"Message":"Loading all tasks was triggered","Date":"2019-07-16T17:35:59.7490587+03:00"}
{"Message":"Loading all tasks was triggered","Date":"2019-07-16T17:36:08.7416191+03:00"}
{"Message":"Loading all tasks was triggered","Date":"2019-07-16T17:36:08.7578591+03:00"}
{"Message":"Loading all tasks was triggered","Date":"2019-07-16T17:36:08.7952942+03:00"}
{"Message":"Loading all tasks was triggered","Date":"2019-07-16T17:36:09.0194014+03:00"}
{"Message":"Loading all tasks was triggered","Date":"2019-07-16T17:36:59.79546+03:00"}
{"Message":"Loading all tasks was triggered","Date":"2019-07-16T17:37:00.553287+03:00"}
{"Message":"Loading all tasks was triggered","Date":"2019-07-16T17:37:00.565176+03:00"}
{"Message":"Loading all tasks was triggered","Date":"2019-07-16T17:37:00.5714395+03:00"}
{"Message":"Loading all tasks was triggered","Date":"2019-07-16T17:37:01.0498015+03:00"}
{"Message":"Loading all tasks was triggered","Date":"2019-07-16T17:37:01.7980182+03:00"}
{"Message":"Loading all tasks was triggered","Date":"2019-07-16T17:37:03.9308606+03:00"}
{"Message":"Loading all tasks was triggered","Date":"2019-07-16T17:37:04.2689429+03:00"}
{"Message":"Loading all tasks was triggered","Date":"2019-07-16T17:37:04.6945173+03:00"}
{"Message":"Loading all tasks was triggered","Date":"2019-07-16T17:37:05.6127142+03:00"}
{"Message":"Loading all tasks was triggered","Date":"2019-07-16T17:37:06.6547293+03:00"}
{"Message":"Loading all tasks was triggered","Date":"2019-07-16T17:37:07.6473275+03:00"}
{"Message":"Loading all tasks was triggered","Date":"2019-07-16T17:37:08.6171511+03:00"}
{"Message":"Loading all tasks was triggered","Date":"2019-07-16T17:37:09.6195195+03:00"}
{"Message":"Loading all tasks was triggered","Date":"2019-07-16T17:37:10.6196071+03:00"}
{"Message":"Loading all tasks was triggered","Date":"2019-07-16T17:37:11.6313373+03:00"}
{"Message":"Loading all tasks was triggered","Date":"2019-07-16T17:37:12.6536595+03:00"}
{"Message":"Loading all tasks was triggered","Date":"2019-07-16T17:37:13.6431022+03:00"}
{"Message":"Loading all tasks was triggered","Date":"2019-07-16T17:37:14.631316+03:00"}
{"Message":"Loading all tasks was triggered","Date":"2019-07-16T17:37:15.6646004+03:00"}
{"Message":"Loading all tasks was triggered","Date":"2019-07-16T17:37:16.6789075+03:00"}
{"Message":"Loading all tasks was triggered","Date":"2019-07-16T17:37:17.6235262+03:00"}
{"Message":"Loading all tasks was triggered","Date":"2019-07-16T17:37:18.6798258+03:00"}
{"Message":"Loading all tasks was triggered","Date":"2019-07-16T17:37:19.6451738+03:00"}
{"Message":"Loading all tasks was triggered","Date":"2019-07-16T17:37:20.6685777+03:00"}
{"Message":"Loading all tasks was triggered","Date":"2019-07-16T17:37:21.7028192+03:00"}
{"Message":"Loading all projects was triggered","Date":"2019-07-16T17:37:22.3235936+03:00"}
{"Message":"Loading all tasks was triggered","Date":"2019-07-16T17:37:22.6671889+03:00"}
{"Message":"Loading all tasks was triggered","Date":"2019-07-16T17:37:23.628472+03:00"}
{"Message":"Loading all tasks was triggered","Date":"2019-07-16T17:37:24.7863685+03:00"}
{"Message":"Loading all tasks was triggered","Date":"2019-07-16T17:39:58.1598802+03:00"}
{"Message":"Loading all tasks was triggered","Date":"2019-07-16T17:39:58.6474324+03:00"}
{"Message":"Loading all tasks was triggered","Date":"2019-07-16T17:39:59.4879252+03:00"}
{"Message":"Loading all tasks was triggered","Date":"2019-07-16T17:40:00.5529813+03:00"}
{"Message":"Loading all tasks was triggered","Date":"2019-07-16T17:40:01.4578702+03:00"}
{"Message":"Loading all tasks was triggered","Date":"2019-07-16T17:40:02.4700732+03:00"}
{"Message":"Loading all tasks was triggered","Date":"2019-07-16T17:40:03.4922257+03:00"}
{"Message":"Loading all tasks was triggered","Date":"2019-07-16T17:40:04.6179769+03:00"}
{"Message":"Loading all tasks was triggered","Date":"2019-07-16T17:40:05.4889301+03:00"}
{"Message":"Loading all tasks was triggered","Date":"2019-07-16T17:40:06.5026933+03:00"}
{"Message":"Loading all tasks was triggered","Date":"2019-07-16T17:40:07.4632061+03:00"}
{"Message":"Loading all tasks was triggered","Date":"2019-07-16T17:40:08.472567+03:00"}
{"Message":"Loading all tasks was triggered","Date":"2019-07-16T17:40:09.4738487+03:00"}
{"Message":"Loading all tasks was triggered","Date":"2019-07-16T17:40:10.4768923+03:00"}
{"Message":"Loading all tasks was triggered","Date":"2019-07-16T17:40:11.4593701+03:00"}
{"Message":"Loading all tasks was triggered","Date":"2019-07-16T17:40:12.5404745+03:00"}
{"Message":"Loading all tasks was triggered","Date":"2019-07-16T17:40:13.4846875+03:00"}
{"Message":"Loading all tasks was triggered","Date":"2019-07-16T17:40:14.5469631+03:00"}
{"Message":"Loading all tasks was triggered","Date":"2019-07-16T17:40:15.4781999+03:00"}
{"Message":"Loading all tasks was triggered","Date":"2019-07-16T17:40:16.5168004+03:00"}
{"Message":"Loading all tasks was triggered","Date":"2019-07-16T17:40:17.5229044+03:00"}
{"Message":"Loading all tasks was triggered","Date":"2019-07-16T17:40:18.5087368+03:00"}
{"Message":"Loading all tasks was triggered","Date":"2019-07-16T17:40:19.479247+03:00"}
{"Message":"Loading all tasks was triggered","Date":"2019-07-16T17:40:20.478171+03:00"}
{"Message":"Loading all tasks was triggered","Date":"2019-07-16T17:40:21.575063+03:00"}
{"Message":"Loading all tasks was triggered","Date":"2019-07-16T17:40:22.6393836+03:00"}
{"Message":"Loading all tasks was triggered","Date":"2019-07-16T17:40:23.4734417+03:00"}
{"Message":"Loading all tasks was triggered","Date":"2019-07-16T17:40:24.503539+03:00"}
{"Message":"Loading all tasks was triggered","Date":"2019-07-16T17:40:25.5004164+03:00"}
{"Message":"Loading all tasks was triggered","Date":"2019-07-16T17:40:26.5395315+03:00"}
{"Message":"Loading all tasks was triggered","Date":"2019-07-16T17:40:27.5037973+03:00"}
{"Message":"Loading all tasks was triggered","Date":"2019-07-16T17:40:28.5274444+03:00"}
{"Message":"Loading all tasks was triggered","Date":"2019-07-16T17:40:29.5217146+03:00"}
{"Message":"Loading all tasks was triggered","Date":"2019-07-16T17:40:30.5294591+03:00"}
{"Message":"Loading all tasks was triggered","Date":"2019-07-16T17:40:31.5362955+03:00"}
{"Message":"Loading all tasks was triggered","Date":"2019-07-16T17:47:01.4385244+03:00"}
{"Message":"Loading all tasks was triggered","Date":"2019-07-16T17:47:11.4844252+03:00"}
{"Message":"Loading all tasks was triggered","Date":"2019-07-16T17:58:13.1807736+03:00"}
{"Message":"Loading all tasks was triggered","Date":"2019-07-16T17:58:20.9304263+03:00"}
{"Message":"Loading all tasks was triggered","Date":"2019-07-16T17:58:41.3545643+03:00"}
{"Message":"Loading all tasks was triggered","Date":"2019-07-16T17:58:41.3834132+03:00"}
{"Message":"Loading all tasks was triggered","Date":"2019-07-16T17:59:06.8126547+03:00"}
{"Message":"Loading all tasks was triggered","Date":"2019-07-16T17:59:07.3235687+03:00"}
{"Message":"Loading all tasks was triggered","Date":"2019-07-16T17:59:08.5150452+03:00"}
{"Message":"Loading all tasks was triggered","Date":"2019-07-16T18:03:23.6731462+03:00"}
{"Message":"Loading all tasks was triggered","Date":"2019-07-16T18:03:24.5294132+03:00"}
{"Message":"Loading all tasks was triggered","Date":"2019-07-16T18:03:25.6690049+03:00"}
{"Message":"Loading all tasks was triggered","Date":"2019-07-16T18:13:15.2037593+03:00"}
{"Message":"Loading all tasks was triggered","Date":"2019-07-16T18:13:15.8374072+03:00"}
{"Message":"Loading all tasks was triggered","Date":"2019-07-16T18:13:16.6484075+03:00"}
{"Message":"Loading all tasks was triggered","Date":"2019-07-16T18:13:17.5839431+03:00"}
{"Message":"Loading all tasks was triggered","Date":"2019-07-16T18:13:18.6274365+03:00"}
{"Message":"Loading all tasks was triggered","Date":"2019-07-16T18:13:20.4194452+03:00"}
{"Message":"Loading all tasks was triggered","Date":"2019-07-16T18:13:21.3530501+03:00"}
{"Message":"Loading all tasks was triggered","Date":"2019-07-16T18:14:35.1369829+03:00"}
{"Message":"Loading all tasks was triggered","Date":"2019-07-16T18:14:35.7477244+03:00"}
{"Message":"Loading all tasks was triggered","Date":"2019-07-16T18:14:36.3105749+03:00"}
{"Message":"Loading all tasks was triggered","Date":"2019-07-16T18:15:15.7071302+03:00"}
{"Message":"Loading all tasks was triggered","Date":"2019-07-16T18:15:15.9317463+03:00"}
{"Message":"Loading all tasks was triggered","Date":"2019-07-16T18:18:02.4054612+03:00"}
{"Message":"Loading all tasks was triggered","Date":"2019-07-16T18:18:02.4211603+03:00"}
{"Message":"Loading all tasks was triggered","Date":"2019-07-16T18:18:03.2057922+03:00"}
{"Message":"Loading all tasks was triggered","Date":"2019-07-16T18:18:04.3377608+03:00"}
{"Message":"Loading all tasks was triggered","Date":"2019-07-16T18:40:57.6554307+03:00"}
{"Message":"Loading all tasks was triggered","Date":"2019-07-16T18:40:58.4356919+03:00"}
{"Message":"Loading all tasks was triggered","Date":"2019-07-16T18:40:59.2182034+03:00"}
{"Message":"Loading all tasks was triggered","Date":"2019-07-16T18:41:00.1098144+03:00"}
{"Message":"Loading all tasks was triggered","Date":"2019-07-16T18:41:03.7461542+03:00"}
{"Message":"Loading all tasks was triggered","Date":"2019-07-16T18:41:03.9684565+03:00"}
{"Message":"Loading all tasks was triggered","Date":"2019-07-16T18:41:04.2211798+03:00"}
{"Message":"Loading all tasks was triggered","Date":"2019-07-16T18:41:05.2436332+03:00"}
{"Message":"Loading all tasks was triggered","Date":"2019-07-16T19:00:30.2284945+03:00"}
{"Message":"Loading all projects was triggered","Date":"2019-07-16T19:01:08.4676759+03:00"}
{"Message":"Loading all tasks was triggered","Date":"2019-07-16T19:02:16.4321283+03:00"}
{"Message":"Get Count Of Task in project by user Id","Date":"2019-07-16T19:02:31.7043351+03:00"}
{"Message":"Loading all tasks was triggered","Date":"2019-07-16T19:04:15.1935136+03:00"}
{"Message":"Loading all tasks was triggered","Date":"2019-07-16T19:05:05.0674633+03:00"}
{"Message":"Loading all tasks was triggered","Date":"2019-07-16T19:05:35.230846+03:00"}
{"Message":"Loading all teams was triggered","Date":"2019-07-16T19:05:44.3782719+03:00"}
{"Message":"Loading all tasks was triggered","Date":"2019-07-16T19:08:05.1532091+03:00"}
{"Message":"Loading all projects was triggered","Date":"2019-07-16T19:09:05.6416395+03:00"}
{"Message":"Loading all tasks was triggered","Date":"2019-07-16T19:13:14.1290536+03:00"}
{"Message":"Loading all tasks was triggered","Date":"2019-07-16T19:22:54.0188695+03:00"}
{"Message":"Loading all tasks was triggered","Date":"2019-07-16T19:22:54.2655314+03:00"}
{"Message":"Loading all tasks was triggered","Date":"2019-07-16T19:22:54.3148563+03:00"}
{"Message":"Loading all tasks was triggered","Date":"2019-07-16T19:22:54.3556794+03:00"}
{"Message":"Loading all tasks was triggered","Date":"2019-07-16T19:22:54.4687958+03:00"}
{"Message":"Loading all tasks was triggered","Date":"2019-07-16T19:22:54.5094533+03:00"}
{"Message":"Loading all tasks was triggered","Date":"2019-07-16T19:23:05.1063419+03:00"}
{"Message":"Loading all tasks was triggered","Date":"2019-07-16T19:23:06.6831018+03:00"}
{"Message":"Loading all tasks was triggered","Date":"2019-07-16T19:23:07.4001229+03:00"}
{"Message":"Loading all tasks was triggered","Date":"2019-07-16T19:23:07.8869276+03:00"}
{"Message":"Loading all tasks was triggered","Date":"2019-07-16T19:23:08.8472809+03:00"}
{"Message":"Loading all tasks was triggered","Date":"2019-07-16T19:23:10.4771185+03:00"}
{"Message":"Loading all projects was triggered","Date":"2019-07-16T19:23:26.6479133+03:00"}
{"Message":"Loading all tasks was triggered","Date":"2019-07-16T19:24:07.8921628+03:00"}
{"Message":"Loading all tasks was triggered","Date":"2019-07-16T19:24:08.1794855+03:00"}
{"Message":"Loading all tasks was triggered","Date":"2019-07-16T19:24:09.1321558+03:00"}
{"Message":"Loading all tasks was triggered","Date":"2019-07-16T19:24:10.4191372+03:00"}
{"Message":"Loading all tasks was triggered","Date":"2019-07-16T19:24:40.3054802+03:00"}
{"Message":"Loading all projects was triggered","Date":"2019-07-16T19:25:26.9584085+03:00"}
{"Message":"Loading all tasks was triggered","Date":"2019-07-16T19:27:41.5981301+03:00"}
{"Message":"Loading all tasks was triggered","Date":"2019-07-16T19:27:42.3405607+03:00"}
{"Message":"Loading all tasks was triggered","Date":"2019-07-16T19:27:43.1564695+03:00"}
{"Message":"Loading all tasks was triggered","Date":"2019-07-16T19:27:44.1176082+03:00"}
{"Message":"Loading all tasks was triggered","Date":"2019-07-16T19:30:10.8497551+03:00"}
{"Message":"Loading all tasks was triggered","Date":"2019-07-16T19:30:11.5348972+03:00"}
{"Message":"Loading all tasks was triggered","Date":"2019-07-16T19:30:12.526979+03:00"}
{"Message":"Loading all tasks was triggered","Date":"2019-07-16T19:32:10.2213264+03:00"}
{"Message":"Loading all tasks was triggered","Date":"2019-07-16T19:32:10.2715656+03:00"}
{"Message":"Loading all tasks was triggered","Date":"2019-07-16T19:32:11.2195118+03:00"}
{"Message":"Loading all tasks was triggered","Date":"2019-07-16T19:32:12.8788623+03:00"}
{"Message":"Loading all tasks was triggered","Date":"2019-07-16T19:32:13.7162635+03:00"}
{"Message":"Loading all tasks was triggered","Date":"2019-07-16T19:32:14.2174722+03:00"}
{"Message":"Loading all tasks was triggered","Date":"2019-07-16T19:49:46.4461675+03:00"}
{"Message":"Loading all tasks was triggered","Date":"2019-07-16T19:49:47.2466011+03:00"}
{"Message":"Loading all tasks was triggered","Date":"2019-07-16T19:49:47.2499682+03:00"}
{"Message":"Loading all tasks was triggered","Date":"2019-07-16T19:49:47.253026+03:00"}
{"Message":"Loading all tasks was triggered","Date":"2019-07-16T19:49:47.8642227+03:00"}
{"Message":"Loading all tasks was triggered","Date":"2019-07-16T19:49:48.799408+03:00"}
{"Message":"Loading all tasks was triggered","Date":"2019-07-16T19:49:52.8883517+03:00"}
{"Message":"Loading all tasks was triggered","Date":"2019-07-16T19:49:53.4529683+03:00"}
{"Message":"Loading all tasks was triggered","Date":"2019-07-16T19:49:53.4669741+03:00"}
{"Message":"Loading all tasks was triggered","Date":"2019-07-16T19:49:53.9921943+03:00"}
{"Message":"Loading all projects was triggered","Date":"2019-07-16T19:50:39.524751+03:00"}
{"Message":"Loading all tasks was triggered","Date":"2019-07-16T19:51:38.0486957+03:00"}
{"Message":"Loading all teams was triggered","Date":"2019-07-16T19:51:51.2107189+03:00"}
{"Message":"Loading all tasks was triggered","Date":"2019-07-17T17:46:02.4399772+03:00"}
{"Message":"Loading all projects was triggered","Date":"2019-07-17T17:46:33.673424+03:00"}
{"Message":"Loading all tasks was triggered","Date":"2019-07-17T17:46:35.4027665+03:00"}
{"Message":"Loading all tasks was triggered","Date":"2019-07-17T17:46:39.7477596+03:00"}
{"Message":"Loading all teams was triggered","Date":"2019-07-17T17:46:44.4950084+03:00"}
{"Message":"Loading all users was triggered","Date":"2019-07-17T17:46:48.7083364+03:00"}
{"Message":"Loading all task states was triggered","Date":"2019-07-17T17:46:53.1616305+03:00"}
{"Message":"Get Count Of Task in project by user Id","Date":"2019-07-17T17:46:59.361435+03:00"}
{"Message":"Get tasks of user","Date":"2019-07-17T17:47:08.9332295+03:00"}
{"Message":"Get team with young user","Date":"2019-07-17T17:47:14.4668661+03:00"}
{"Message":"Get sorted list with user and team","Date":"2019-07-17T17:47:18.4240919+03:00"}
{"Message":"Get Information about user by Id","Date":"2019-07-17T17:47:24.5293084+03:00"}
{"Message":"Get Information about project by Id","Date":"2019-07-17T17:48:01.0949842+03:00"}
{"Message":"Project creating was triggered","Date":"2019-07-17T17:53:24.2699091+03:00"}
{"Message":"Loading all tasks was triggered","Date":"2019-07-17T17:53:26.158378+03:00"}
{"Message":"Loading all projects was triggered","Date":"2019-07-17T17:53:41.2617563+03:00"}
{"Message":"Project creating was triggered","Date":"2019-07-17T17:56:43.2471203+03:00"}
{"Message":"Loading all tasks was triggered","Date":"2019-07-17T17:56:53.6995231+03:00"}
{"Message":"Project creating was triggered","Date":"2019-07-17T17:58:28.5396288+03:00"}
{"Message":"Loading all tasks was triggered","Date":"2019-07-17T17:59:29.1430842+03:00"}
{"Message":"Project creating was triggered","Date":"2019-07-17T18:01:01.7000791+03:00"}
{"Message":"Project creating was triggered","Date":"2019-07-17T18:11:16.6938947+03:00"}
{"Message":"Project creating was triggered","Date":"2019-07-17T18:11:38.3045469+03:00"}
{"Message":"Project creating was triggered","Date":"2019-07-17T18:15:36.1705242+03:00"}
{"Message":"Project creating was triggered","Date":"2019-07-17T18:16:37.5657354+03:00"}
{"Message":"Loading all tasks was triggered","Date":"2019-07-17T18:16:56.6052479+03:00"}
{"Message":"Project creating was triggered","Date":"2019-07-17T18:18:04.5553173+03:00"}
{"Message":"Project creating was triggered","Date":"2019-07-17T18:28:56.7652716+03:00"}
{"Message":"Loading all tasks was triggered","Date":"2019-07-17T18:29:47.9947739+03:00"}
{"Message":"Loading all projects was triggered","Date":"2019-07-17T18:30:16.7225765+03:00"}
{"Message":"Project creating was triggered","Date":"2019-07-17T19:35:30.7678947+03:00"}
{"Message":"Project creating was triggered","Date":"2019-07-17T19:35:31.9444796+03:00"}
{"Message":"Project creating was triggered","Date":"2019-07-17T19:35:31.9505277+03:00"}
{"Message":"Loading all projects was triggered","Date":"2019-07-17T19:35:59.5548452+03:00"}
{"Message":"Loading all tasks was triggered","Date":"2019-07-17T19:36:02.9488152+03:00"}
{"Message":"Loading all projects was triggered","Date":"2019-07-17T19:36:19.0354233+03:00"}
{"Message":"Loading all tasks was triggered","Date":"2019-07-17T19:36:27.6116542+03:00"}
{"Message":"Project creating was triggered","Date":"2019-07-17T19:36:52.627708+03:00"}
{"Message":"Loading all tasks was triggered","Date":"2019-07-17T19:37:12.6661045+03:00"}
{"Message":"Loading all projects was triggered","Date":"2019-07-17T19:37:25.8207556+03:00"}
{"Message":"Task creating was triggered","Date":"2019-07-17T19:38:00.3616402+03:00"}
{"Message":"Task creating was triggered","Date":"2019-07-17T19:38:17.6994249+03:00"}
{"Message":"Loading all tasks was triggered","Date":"2019-07-17T19:38:25.6181031+03:00"}
{"Message":"Loading all projects was triggered","Date":"2019-07-17T19:38:36.6822249+03:00"}
{"Message":"Project deleting was triggered","Date":"2019-07-17T19:38:46.0364491+03:00"}
{"Message":"Loading all projects was triggered","Date":"2019-07-17T19:40:03.2562025+03:00"}
{"Message":"Loading all tasks was triggered","Date":"2019-07-17T19:40:04.812649+03:00"}
{"Message":"Loading all projects was triggered","Date":"2019-07-17T19:40:16.0918197+03:00"}
{"Message":"Loading all tasks was triggered","Date":"2019-07-17T19:40:27.6428667+03:00"}
{"Message":"Loading all tasks was triggered","Date":"2019-07-17T19:41:55.2361198+03:00"}
{"Message":"Loading all tasks was triggered","Date":"2019-07-17T19:41:57.7100049+03:00"}
{"Message":"Loading all tasks was triggered","Date":"2019-07-17T19:42:25.7898195+03:00"}
{"Message":"Loading all tasks was triggered","Date":"2019-07-17T19:42:27.320374+03:00"}
{"Message":"Loading all projects was triggered","Date":"2019-07-17T19:45:39.7603462+03:00"}
{"Message":"Loading all tasks was triggered","Date":"2019-07-17T19:45:41.3044594+03:00"}
{"Message":"Loading all teams was triggered","Date":"2019-07-17T19:46:25.0631486+03:00"}
{"Message":"Loading all tasks was triggered","Date":"2019-07-17T19:46:26.6447075+03:00"}
{"Message":"Loading all projects was triggered","Date":"2019-07-17T19:47:11.8059134+03:00"}
{"Message":"Loading all tasks was triggered","Date":"2019-07-17T19:47:13.5577253+03:00"}
{"Message":"Loading all projects was triggered","Date":"2019-07-17T19:47:56.5526755+03:00"}
{"Message":"Loading all tasks was triggered","Date":"2019-07-17T19:47:58.1005797+03:00"}
{"Message":"Loading all projects was triggered","Date":"2019-07-17T19:48:40.9480503+03:00"}
{"Message":"Loading all tasks was triggered","Date":"2019-07-17T19:48:42.5654609+03:00"}
{"Message":"Loading all projects was triggered","Date":"2019-07-17T19:49:49.5288351+03:00"}
{"Message":"Loading all tasks was triggered","Date":"2019-07-17T19:49:51.1233193+03:00"}
{"Message":"Loading all projects was triggered","Date":"2019-07-17T19:52:41.577583+03:00"}
{"Message":"Loading all tasks was triggered","Date":"2019-07-17T19:52:44.1647789+03:00"}
{"Message":"Loading all projects was triggered","Date":"2019-07-17T19:58:03.931741+03:00"}
{"Message":"Loading all tasks was triggered","Date":"2019-07-17T19:58:06.5268568+03:00"}
{"Message":"Loading all projects was triggered","Date":"2019-07-17T20:00:37.9921121+03:00"}
{"Message":"Loading all tasks was triggered","Date":"2019-07-17T20:00:40.4562835+03:00"}
{"Message":"Loading all projects was triggered","Date":"2019-07-17T20:02:01.2193495+03:00"}
{"Message":"Loading all projects was triggered","Date":"2019-07-17T20:02:12.4090429+03:00"}
{"Message":"Loading all projects was triggered","Date":"2019-07-17T20:04:05.3179563+03:00"}
{"Message":"Loading all tasks was triggered","Date":"2019-07-17T20:04:06.8161014+03:00"}
{"Message":"Loading all projects was triggered","Date":"2019-07-17T20:11:36.9567156+03:00"}
{"Message":"Loading all tasks was triggered","Date":"2019-07-17T20:11:39.5560071+03:00"}
{"Message":"Loading all projects was triggered","Date":"2019-07-17T20:13:44.9035178+03:00"}
{"Message":"Loading all tasks was triggered","Date":"2019-07-17T20:13:46.4871221+03:00"}
{"Message":"Loading all projects was triggered","Date":"2019-07-17T20:14:01.8045343+03:00"}
{"Message":"Loading all projects was triggered","Date":"2019-07-17T20:14:21.0578019+03:00"}
{"Message":"Loading all tasks was triggered","Date":"2019-07-17T20:14:26.2374798+03:00"}
{"Message":"Loading all teams was triggered","Date":"2019-07-17T20:14:30.5871364+03:00"}
{"Message":"Loading all projects was triggered","Date":"2019-07-17T20:15:17.6149098+03:00"}
{"Message":"Loading all tasks was triggered","Date":"2019-07-17T20:15:22.6438329+03:00"}
{"Message":"Loading all projects was triggered","Date":"2019-07-17T20:15:50.3367177+03:00"}
{"Message":"Loading all projects was triggered","Date":"2019-07-17T20:16:34.1467041+03:00"}
{"Message":"Loading all projects was triggered","Date":"2019-07-17T20:17:14.7941845+03:00"}
{"Message":"Loading all tasks was triggered","Date":"2019-07-17T20:17:43.599319+03:00"}
{"Message":"Loading all projects was triggered","Date":"2019-07-17T20:18:16.3050216+03:00"}
{"Message":"Loading all tasks was triggered","Date":"2019-07-17T20:18:20.13185+03:00"}
{"Message":"Loading all tasks was triggered","Date":"2019-07-17T20:18:46.3351842+03:00"}
{"Message":"Loading all tasks was triggered","Date":"2019-07-17T20:18:49.6199035+03:00"}
{"Message":"Project getting by Id was triggered","Date":"2019-07-17T20:20:00.6103075+03:00"}
{"Message":"Loading all projects was triggered","Date":"2019-07-17T20:20:54.8998637+03:00"}
{"Message":"Loading all projects was triggered","Date":"2019-07-17T20:21:36.3529345+03:00"}
{"Message":"Loading all projects was triggered","Date":"2019-07-17T20:22:02.2039616+03:00"}
{"Message":"Loading all projects was triggered","Date":"2019-07-17T20:23:03.4426613+03:00"}
{"Message":"Loading all projects was triggered","Date":"2019-07-17T20:24:29.3001927+03:00"}
{"Message":"Loading all projects was triggered","Date":"2019-07-17T20:26:11.4558741+03:00"}
{"Message":"Loading all projects was triggered","Date":"2019-07-17T20:30:30.5671963+03:00"}
{"Message":"Loading all tasks was triggered","Date":"2019-07-17T20:31:22.7102738+03:00"}
{"Message":"Loading all tasks was triggered","Date":"2019-07-17T20:31:24.2991301+03:00"}
{"Message":"Loading all projects was triggered","Date":"2019-07-17T20:34:27.7637418+03:00"}
{"Message":"Loading all tasks was triggered","Date":"2019-07-17T20:34:30.2215913+03:00"}
{"Message":"Loading all projects was triggered","Date":"2019-07-17T20:34:57.202818+03:00"}
{"Message":"Loading all projects was triggered","Date":"2019-07-17T20:35:29.4504906+03:00"}
{"Message":"Loading all projects was triggered","Date":"2019-07-17T20:36:17.1860908+03:00"}
{"Message":"Loading all tasks was triggered","Date":"2019-07-17T20:36:18.7590734+03:00"}
{"Message":"Loading all projects was triggered","Date":"2019-07-17T20:36:57.582892+03:00"}
{"Message":"Loading all tasks was triggered","Date":"2019-07-17T20:36:58.7733271+03:00"}
{"Message":"Loading all projects was triggered","Date":"2019-07-17T20:38:19.5877413+03:00"}
{"Message":"Loading all tasks was triggered","Date":"2019-07-17T20:38:21.1261451+03:00"}
{"Message":"Loading all projects was triggered","Date":"2019-07-17T20:38:43.7215832+03:00"}
{"Message":"Loading all tasks was triggered","Date":"2019-07-17T20:38:44.8881681+03:00"}
{"Message":"Loading all projects was triggered","Date":"2019-07-17T20:39:14.9997388+03:00"}
{"Message":"Loading all tasks was triggered","Date":"2019-07-17T20:39:16.1654225+03:00"}
{"Message":"Project creating was triggered","Date":"2019-07-17T20:54:14.2205585+03:00"}
{"Message":"Loading all tasks was triggered","Date":"2019-07-17T20:54:19.5539368+03:00"}
{"Message":"Loading all projects was triggered","Date":"2019-07-17T20:54:51.0173979+03:00"}
{"Message":"Loading all tasks was triggered","Date":"2019-07-17T20:54:57.1966638+03:00"}
{"Message":"Loading all projects was triggered","Date":"2019-07-17T20:55:37.1483717+03:00"}
{"Message":"Loading all tasks was triggered","Date":"2019-07-17T20:55:38.731344+03:00"}
{"Message":"Loading all projects was triggered","Date":"2019-07-17T20:55:47.6201693+03:00"}
{"Message":"Loading all tasks was triggered","Date":"2019-07-17T20:55:48.7747245+03:00"}
{"Message":"Loading all projects was triggered","Date":"2019-07-17T20:55:57.0646664+03:00"}
{"Message":"Loading all tasks was triggered","Date":"2019-07-17T20:55:58.2403096+03:00"}
{"Message":"Loading all projects was triggered","Date":"2019-07-17T20:56:06.3142345+03:00"}
{"Message":"Loading all tasks was triggered","Date":"2019-07-17T20:56:07.4838786+03:00"}
{"Message":"Loading all projects was triggered","Date":"2019-07-17T20:57:27.9734494+03:00"}
{"Message":"Loading all tasks was triggered","Date":"2019-07-17T20:57:29.6085644+03:00"}
{"Message":"Loading all projects was triggered","Date":"2019-07-17T20:57:39.3379105+03:00"}
{"Message":"Loading all tasks was triggered","Date":"2019-07-17T20:57:40.5157177+03:00"}
{"Message":"Loading all tasks was triggered","Date":"2019-07-17T20:57:41.7727347+03:00"}
{"Message":"Loading all tasks was triggered","Date":"2019-07-17T20:57:42.9049908+03:00"}
{"Message":"Loading all tasks was triggered","Date":"2019-07-17T20:57:46.3463754+03:00"}
{"Message":"Loading all tasks was triggered","Date":"2019-07-17T20:57:47.5347071+03:00"}
{"Message":"Loading all users was triggered","Date":"2019-07-17T20:57:51.4616648+03:00"}
{"Message":"Loading all tasks was triggered","Date":"2019-07-17T20:57:52.6956542+03:00"}
{"Message":"Loading all tasks was triggered","Date":"2019-07-17T20:57:57.4533941+03:00"}
{"Message":"Loading all tasks was triggered","Date":"2019-07-17T20:57:59.225198+03:00"}
{"Message":"Loading all tasks was triggered","Date":"2019-07-17T20:58:00.6306582+03:00"}
{"Message":"Loading all tasks was triggered","Date":"2019-07-17T20:58:02.0352944+03:00"}
{"Message":"Loading all tasks was triggered","Date":"2019-07-17T20:58:03.0349415+03:00"}
{"Message":"Loading all tasks was triggered","Date":"2019-07-17T20:58:05.2432043+03:00"}
{"Message":"Loading all tasks was triggered","Date":"2019-07-17T20:58:07.494091+03:00"}
{"Message":"Loading all tasks was triggered","Date":"2019-07-17T20:58:11.6804111+03:00"}
{"Message":"Loading all tasks was triggered","Date":"2019-07-17T20:58:14.1476908+03:00"}
{"Message":"Loading all tasks was triggered","Date":"2019-07-17T20:58:16.764864+03:00"}
{"Message":"Loading all tasks was triggered","Date":"2019-07-17T20:58:20.6475773+03:00"}
{"Message":"Loading all tasks was triggered","Date":"2019-07-17T20:58:23.7929152+03:00"}
{"Message":"Loading all tasks was triggered","Date":"2019-07-17T20:58:26.7297147+03:00"}
{"Message":"Loading all tasks was triggered","Date":"2019-07-17T20:58:32.557704+03:00"}
{"Message":"Loading all tasks was triggered","Date":"2019-07-17T20:58:37.051754+03:00"}
{"Message":"Loading all tasks was triggered","Date":"2019-07-17T20:58:42.4569216+03:00"}
{"Message":"Loading all tasks was triggered","Date":"2019-07-17T20:58:45.305699+03:00"}
{"Message":"Loading all tasks was triggered","Date":"2019-07-17T20:58:49.4137572+03:00"}
{"Message":"Loading all tasks was triggered","Date":"2019-07-17T20:58:52.2314234+03:00"}
{"Message":"Loading all tasks was triggered","Date":"2019-07-17T20:58:58.2907967+03:00"}
{"Message":"Loading all projects was triggered","Date":"2019-07-17T20:59:08.1879869+03:00"}
{"Message":"Loading all tasks was triggered","Date":"2019-07-17T20:59:09.4380741+03:00"}
{"Message":"Loading all tasks was triggered","Date":"2019-07-17T20:59:09.6431595+03:00"}
{"Message":"Loading all projects was triggered","Date":"2019-07-17T21:00:15.7906711+03:00"}
{"Message":"Loading all tasks was triggered","Date":"2019-07-17T21:00:17.4007399+03:00"}
{"Message":"Loading all projects was triggered","Date":"2019-07-17T21:00:28.6410333+03:00"}
{"Message":"Loading all tasks was triggered","Date":"2019-07-17T21:00:29.8656334+03:00"}
{"Message":"Loading all projects was triggered","Date":"2019-07-17T21:00:38.9145423+03:00"}
{"Message":"Loading all tasks was triggered","Date":"2019-07-17T21:00:40.1516304+03:00"}
{"Message":"Loading all projects was triggered","Date":"2019-07-17T21:14:21.9618579+03:00"}
{"Message":"Loading all tasks was triggered","Date":"2019-07-17T21:14:24.5810844+03:00"}
{"Message":"Loading all projects was triggered","Date":"2019-07-17T21:14:35.5416444+03:00"}
{"Message":"Loading all tasks was triggered","Date":"2019-07-17T21:14:36.7917516+03:00"}
{"Message":"Loading all tasks was triggered","Date":"2019-07-17T21:14:57.2857412+03:00"}
{"Message":"Loading all tasks was triggered","Date":"2019-07-17T21:14:58.5700728+03:00"}
{"Message":"Loading all projects was triggered","Date":"2019-07-17T21:16:21.4456096+03:00"}
{"Message":"Loading all tasks was triggered","Date":"2019-07-17T21:16:23.9540352+03:00"}
{"Message":"Task creating was triggered","Date":"2019-07-17T21:22:11.8073259+03:00"}
{"Message":"Loading all projects was triggered","Date":"2019-07-17T21:26:06.2472438+03:00"}
{"Message":"Loading all tasks was triggered","Date":"2019-07-17T21:26:08.7681992+03:00"}
{"Message":"Loading all projects was triggered","Date":"2019-07-17T21:28:04.9463414+03:00"}
{"Message":"Loading all tasks was triggered","Date":"2019-07-17T21:28:06.4410545+03:00"}
{"Message":"Loading all projects was triggered","Date":"2019-07-17T22:01:06.0138166+03:00"}
{"Message":"Loading all tasks was triggered","Date":"2019-07-17T22:01:08.5422826+03:00"}
{"Message":"Loading all projects was triggered","Date":"2019-07-17T22:39:01.2664865+03:00"}
{"Message":"Loading all tasks was triggered","Date":"2019-07-17T22:39:02.253434+03:00"}
{"Message":"Loading all projects was triggered","Date":"2019-07-17T22:39:02.2573767+03:00"}
{"Message":"Loading all tasks was triggered","Date":"2019-07-17T22:39:02.2595393+03:00"}
{"Message":"Loading all projects was triggered","Date":"2019-07-17T22:39:02.2668576+03:00"}
{"Message":"Loading all tasks was triggered","Date":"2019-07-17T22:39:02.2747038+03:00"}
{"Message":"Loading all projects was triggered","Date":"2019-07-17T22:39:02.2771114+03:00"}
{"Message":"Loading all tasks was triggered","Date":"2019-07-17T22:39:02.2944776+03:00"}
{"Message":"Loading all projects was triggered","Date":"2019-07-17T22:39:26.1380553+03:00"}
{"Message":"Loading all tasks was triggered","Date":"2019-07-17T22:39:29.3120554+03:00"}
{"Message":"Loading all projects was triggered","Date":"2019-07-17T22:42:17.6043529+03:00"}
{"Message":"Loading all tasks was triggered","Date":"2019-07-17T22:42:20.1383464+03:00"}
{"Message":"Loading all projects was triggered","Date":"2019-07-17T22:50:56.3305438+03:00"}
{"Message":"Loading all tasks was triggered","Date":"2019-07-17T22:50:57.9070992+03:00"}
{"Message":"Loading all projects was triggered","Date":"2019-07-17T23:00:30.3137154+03:00"}
{"Message":"Loading all tasks was triggered","Date":"2019-07-17T23:00:31.8936756+03:00"}
{"Message":"Loading all projects was triggered","Date":"2019-07-17T23:02:10.2925429+03:00"}
{"Message":"Loading all tasks was triggered","Date":"2019-07-17T23:02:11.7957254+03:00"}
{"Message":"Loading all projects was triggered","Date":"2019-07-17T23:03:15.1437615+03:00"}
{"Message":"Loading all tasks was triggered","Date":"2019-07-17T23:03:16.679652+03:00"}
{"Message":"Loading all projects was triggered","Date":"2019-07-17T23:03:50.2632816+03:00"}
{"Message":"Loading all tasks was triggered","Date":"2019-07-17T23:03:51.8759018+03:00"}
{"Message":"Loading all projects was triggered","Date":"2019-07-17T23:04:33.8727823+03:00"}
{"Message":"Loading all tasks was triggered","Date":"2019-07-17T23:04:35.4007936+03:00"}
{"Message":"Loading all projects was triggered","Date":"2019-07-17T23:09:41.9634516+03:00"}
{"Message":"Loading all tasks was triggered","Date":"2019-07-17T23:09:44.8700218+03:00"}
{"Message":"Loading all projects was triggered","Date":"2019-07-17T23:11:46.3207771+03:00"}
{"Message":"Loading all tasks was triggered","Date":"2019-07-17T23:11:47.9138979+03:00"}
{"Message":"Loading all projects was triggered","Date":"2019-07-17T23:12:40.3254523+03:00"}
{"Message":"Loading all tasks was triggered","Date":"2019-07-17T23:12:41.865113+03:00"}
{"Message":"Loading all projects was triggered","Date":"2019-07-17T23:13:42.2617931+03:00"}
{"Message":"Loading all tasks was triggered","Date":"2019-07-17T23:13:43.7992027+03:00"}
{"Message":"Loading all projects was triggered","Date":"2019-07-17T23:20:01.5494386+03:00"}
{"Message":"Loading all tasks was triggered","Date":"2019-07-17T23:20:04.1987878+03:00"}
{"Message":"Loading all projects was triggered","Date":"2019-07-17T23:28:53.2450051+03:00"}
{"Message":"Loading all tasks was triggered","Date":"2019-07-17T23:28:56.7005863+03:00"}
{"Message":"Loading all projects was triggered","Date":"2019-07-17T23:31:12.4932635+03:00"}
{"Message":"Loading all tasks was triggered","Date":"2019-07-17T23:31:14.1041833+03:00"}
{"Message":"Loading all tasks was triggered","Date":"2019-07-17T23:38:25.1368157+03:00"}
{"Message":"Loading all projects was triggered","Date":"2019-07-17T23:38:45.0825882+03:00"}
{"Message":"Loading all tasks was triggered","Date":"2019-07-17T23:38:47.4009256+03:00"}
{"Message":"Loading all projects was triggered","Date":"2019-07-17T23:41:14.5902471+03:00"}
{"Message":"Loading all tasks was triggered","Date":"2019-07-17T23:41:16.1491406+03:00"}
{"Message":"Loading all projects was triggered","Date":"2019-07-17T23:44:43.6430791+03:00"}
{"Message":"Loading all tasks was triggered","Date":"2019-07-17T23:44:45.1403286+03:00"}
{"Message":"Loading all projects was triggered","Date":"2019-07-17T23:47:11.1781242+03:00"}
{"Message":"Loading all tasks was triggered","Date":"2019-07-17T23:47:12.698144+03:00"}
{"Message":"Loading all projects was triggered","Date":"2019-07-17T23:49:08.8978663+03:00"}
{"Message":"Loading all tasks was triggered","Date":"2019-07-17T23:49:10.4706727+03:00"}
{"Message":"Loading all projects was triggered","Date":"2019-07-17T23:49:30.7018734+03:00"}
{"Message":"Loading all tasks was triggered","Date":"2019-07-17T23:49:31.9088539+03:00"}
{"Message":"Loading all tasks was triggered","Date":"2019-07-17T23:49:36.770536+03:00"}
{"Message":"Loading all tasks was triggered","Date":"2019-07-17T23:49:37.9219952+03:00"}
{"Message":"Loading all projects was triggered","Date":"2019-07-17T23:54:30.0159908+03:00"}
{"Message":"Loading all tasks was triggered","Date":"2019-07-17T23:54:32.8148934+03:00"}
{"Message":"Loading all projects was triggered","Date":"2019-07-17T23:54:42.5347675+03:00"}
{"Message":"Loading all tasks was triggered","Date":"2019-07-17T23:54:43.9536218+03:00"}
{"Message":"Loading all tasks was triggered","Date":"2019-07-17T23:54:49.5201594+03:00"}
{"Message":"Loading all tasks was triggered","Date":"2019-07-17T23:54:50.7324453+03:00"}
{"Message":"Loading all teams was triggered","Date":"2019-07-17T23:54:56.4528897+03:00"}
{"Message":"Loading all tasks was triggered","Date":"2019-07-17T23:54:57.6902769+03:00"}
